4 Functional Programming | Intermediate R
…
4.1 An Interesting Question

Who played the most games and hit the most home runs in the 90s in the state of Texas? This question is fairly easy to answer with the tools we learned in the Data Manipulation chapter.

data %>% 
  filter(year_id %in% 1990:1999) %>% 
  filter(team_id %in% c("HOU","TEX")) %>% 
  group_by(player_id, team_id) %>% 
  summarize(g = sum(g),
            hr = sum(hr)) %>%
  arrange(desc(g, hr))

## `summarise()` regrouping output by 'player_id' (override with `.groups` argument)

## # A tibble: 411 x 4
## # Groups:   player_id [398]
##    player_id team_id     g    hr
##    <chr>     <chr>   <dbl> <dbl>
##  1 biggicr01 HOU      1515   136
##  2 bagweje01 HOU      1317   263
##  3 gonzaju03 TEX      1224   339
##  4 rodriiv01 TEX      1169   144
##  5 greerru01 TEX       809   103
##  6 palmera01 TEX       790   146
##  7 caminke01 HOU       772    74
##  8 palmede01 TEX       758   154
##  9 gonzalu01 HOU       745    62
## 10 bellde01  HOU       683    74
## # ... with 401 more rows
…
Note that this version of the code uses across, mentioned briefly in the Data Manipulation section; it could also be written with summarize_at, but using across makes our next step easier.

years <- 1990:1999
teams_chosen <- c("HOU", "TEX")
category <- c("g", "hr")

data %>% 
  filter(year_id %in% years) %>% 
  filter(team_id %in% teams_chosen) %>%
  group_by(player_id, team_id) %>% 
  summarize(across(category, sum)) %>% # requires dplyr 1.0.0
  arrange(desc(across(all_of(category)))) # requires dplyr 1.0.0

## # A tibble: 411 x 4
## # Groups:   player_id [398]
##    player_id team_id     g    hr
##    <chr>     <chr>   <dbl> <dbl>
##  1 biggicr01 HOU      1515   136
##  2 bagweje01 HOU      1317   263
##  3 gonzaju03 TEX      1224   339
##  4 rodriiv01 TEX      1169   144
##  5 greerru01 TEX       809   103
##  6 palmera01 TEX       790   146
##  7 caminke01 HOU       772    74
##  8 palmede01 TEX       758   154
##  9 gonzalu01 HOU       745    62
## 10 bellde01  HOU       683    74
## # ... with 401 more rows
…
  return(batting_data_subset_summary)
}

# Texas in the 90s?
subset_batting_stats(batting_data = data, years = 1990:1999, teams_chosen = c("HOU", "TEX"), category = c("g", "hr"))

## # A tibble: 411 x 4
## # Groups:   player_id [398]
##    player_id team_id     g    hr
##    <chr>     <chr>   <dbl> <dbl>
##  1 biggicr01 HOU      1515   136
##  2 bagweje01 HOU      1317   263
##  3 gonzaju03 TEX      1224   339
##  4 rodriiv01 TEX      1169   144
##  5 greerru01 TEX       809   103
##  6 palmera01 TEX       790   146
##  7 caminke01 HOU       772    74
##  8 palmede01 TEX       758   154
##  9 gonzalu01 HOU       745    62
## 10 bellde01  HOU       683    74
## # ... with 401 more rows

This is nice and elegant, but it hasn’t accomplished anything different than what we did before. Below you can see the power of this function as we can easily change the parameters to answer a different question.

#Los Angeles in the 2010s?
subset_batting_stats(batting_data = data, years = 2010:2019, teams_chosen = c("LAN", "LAA"), category = c("hr", "g"))

## # A tibble: 388 x 4
## # Groups:   player_id [371]
##    player_id team_id    hr     g
##    <chr>     <chr>   <dbl> <dbl>
##  1 troutmi01 LAA       168   811
##  2 pujolal01 LAA       146   721
##  3 kempma01  LAN       121   652
##  4 gonzaad01 LAN        98   664
##  5 trumbma01 LAA        95   460
##  6 ethiean01 LAN        85   853
##  7 calhoko01 LAA        69   522
##  8 hunteto01 LAA        62   448
##  9 puigya01  LAN        57   435
## 10 kendrho01 LAA        56   724
## # ... with 378 more rows
…
