5 Data Modeling | Intermediate R
…
years_played <- 
data %>% 
  group_by(player_id) %>% 
  summarise(across(year_id, .fns = c("min" = min, "max" = max))) %>%  # dplyr 1.0.0
  mutate(total_years = year_id_max - year_id_min)

## `summarise()` ungrouping output (override with `.groups` argument)

years_played

## # A tibble: 18,915 x 4
##    player_id year_id_min year_id_max total_years
##    <chr>           <dbl>       <dbl>       <dbl>
##  1 aardsda01        2004        2015          11
##  2 aaronha01        1954        1976          22
##  3 aaronto01        1962        1971           9
##  4 aasedo01         1977        1990          13
##  5 abadan01         2001        2006           5
##  6 abadfe01         2010        2016           6
##  7 abadijo01        1875        1875           0
##  8 abbated01        1897        1910          13
##  9 abbeybe01        1892        1896           4
## 10 abbeych01        1893        1897           4
## # ... with 18,905 more rows
…
hof

## # A tibble: 3,475 x 22
##    player_id     g    ab     r     h   x2b   x3b    hr   rbi    sb    cs    bb    so   ibb   hbp    sh    sf  gidp year_id_min year_id_max total_years inducted
##    <chr>     <dbl> <dbl> <dbl> <dbl> <dbl> <dbl> <dbl> <dbl> <dbl> <dbl> <dbl> <dbl> <dbl> <dbl> <dbl> <dbl> <dbl>       <dbl>       <dbl>       <dbl> <fct>   
##  1 aardsda01   331     4     0     0     0     0     0     0     0     0     0     2     0     0     1     0     0        2004        2015          11 0       
##  2 aaronha01  3298 12364  2174  3771   624    98   755  2297   240    73  1402  1383   293    32    21   121   328        1954        1976          22 1       
##  3 aasedo01    448     5     0     0     0     0     0     0     0     0     0     3     0     0     0     0     0        1977        1990          13 0       
##  4 abbated01   855  3044   355   772    99    43    11   324   142     0   289    16     0    33    93     0     0        1897        1910          13 0       
##  5 abbotgl01   248     0     0     0     0     0     0     0     0     0     0     0     0     0     0     0     0        1973        1984          11 0       
##  6 abbotji01   263    21     0     2     0     0     0     3     0     0     0    10     0     0     3     0     1        1989        1999          10 0       
##  7 abbotpa01   162    20     2     5     1     0     0     2     0     0     0     6     0     0     5     0     0        1990        2004          14 0       
##  8 abernte02   681   181    12    25     3     0     0     9     0     0     6    74     0     2    15     0     4        1955        1972          17 0       
##  9 abreubo01  2425  8480  1453  2470   574    59   288  1363   400   128  1476  1840   115    33     7    85   165        1996        2014          18 0       
## 10 adairje01  1165  4019   378  1022   163    19    57   366    29    29   208   499    31    17    41    30   149        1958        1970          12 0       
## # ... with 3,465 more rows
…
## # A tibble: 2 x 2
##   inducted     n
##   <fct>    <int>
## 1 0         2921
## 2 1          232

hofmod <-
hof %>% 
  filter(year_id_max <= 2012) %>% 
  select(-contains("year"))
hofmod

## # A tibble: 3,153 x 19
##    player_id     g    ab     r     h   x2b   x3b    hr   rbi    sb    cs    bb    so   ibb   hbp    sh    sf  gidp inducted
##    <chr>     <dbl> <dbl> <dbl> <dbl> <dbl> <dbl> <dbl> <dbl> <dbl> <dbl> <dbl> <dbl> <dbl> <dbl> <dbl> <dbl> <dbl> <fct>   
##  1 aaronha01  3298 12364  2174  3771   624    98   755  2297   240    73  1402  1383   293    32    21   121   328 1       
##  2 aasedo01    448     5     0     0     0     0     0     0     0     0     0     3     0     0     0     0     0 0       
##  3 abbated01   855  3044   355   772    99    43    11   324   142     0   289    16     0    33    93     0     0 0       
##  4 abbotgl01   248     0     0     0     0     0     0     0     0     0     0     0     0     0     0     0     0 0       
##  5 abbotji01   263    21     0     2     0     0     0     3     0     0     0    10     0     0     3     0     1 0       
##  6 abbotpa01   162    20     2     5     1     0     0     2     0     0     0     6     0     0     5     0     0 0       
##  7 abernte02   681   181    12    25     3     0     0     9     0     0     6    74     0     2    15     0     4 0       
##  8 adairje01  1165  4019   378  1022   163    19    57   366    29    29   208   499    31    17    41    30   149 0       
##  9 adamsba01   482  1019    79   216    31    15     3    75     1     1    53   177     0     1    35     0     0 0       
## 10 adamsbo03  1281  4019   591  1082   188    49    37   303    67    30   414   447     1    17    78     5    62 0       
## # ... with 3,143 more rows

hoftest <-
hof %>% 
  filter(year_id_max > 2012) %>% 
  select(-contains("year"),-inducted)
hoftest

## # A tibble: 322 x 18
##    player_id     g    ab     r     h   x2b   x3b    hr   rbi    sb    cs    bb    so   ibb   hbp    sh    sf  gidp
##    <chr>     <dbl> <dbl> <dbl> <dbl> <dbl> <dbl> <dbl> <dbl> <dbl> <dbl> <dbl> <dbl> <dbl> <dbl> <dbl> <dbl> <dbl>
##  1 aardsda01   331     4     0     0     0     0     0     0     0     0     0     2     0     0     1     0     0
##  2 abreubo01  2425  8480  1453  2470   574    59   288  1363   400   128  1476  1840   115    33     7    85   165
##  3 adamsmi03   410     2     0     0     0     0     0     0     0     0     0     0     0     0     0     0     0
##  4 affelje01   774    17     0     3     0     0     0     2     0     0     2     6     0     0     0     0     0
##  5 alberma01   452    35     1     3     1     0     0     0     0     0     0    21     0     0     3     0     0
##  6 andinro01   481  1344   159   313    58     1    18    97    24    12   113   313     2     6    21     7    42
##  7 ankieri01   653  1921   260   462   101    10    76   251    21    12   162   555    13    12     8    12    31
##  8 arroybr01   421   603    35    77    16     0     6    29     1     0    14   266     0     1    82     3     8
##  9 atchisc01   300     2     0     0     0     0     0     0     0     0     0     1     0     0     0     0     0
## 10 ayalalu01   534    14     0     4     1     0     0     0     0     0     0     3     0     0     3     0     0
## # ... with 312 more rows
…
5.5 Apply Preprocessing

For a recipe with at least one preprocessing operations that has been trained by recipe(), apply the computations to the data.

hof_training_preprocessed_tbl <- 
  preprocessing_recipe %>% 
  bake(training(hof_initial_split))

hof_training_preprocessed_tbl

## # A tibble: 2,523 x 18
##         g     ab       r      h    x2b    x3b      hr     rbi      sb     cs     bb     so    ibb     hbp      sh     sf   gidp inducted
##     <dbl>  <dbl>   <dbl>  <dbl>  <dbl>  <dbl>   <dbl>   <dbl>   <dbl>  <dbl>  <dbl>  <dbl>  <dbl>   <dbl>   <dbl>  <dbl>  <dbl> <fct>   
##  1  3.72   3.65   4.29    3.95   3.62   1.99   7.24    4.97    1.69    1.70   3.55   2.83   7.85   0.439  -0.415   4.56   4.65  1       
##  2 -0.770 -1.06  -0.919  -0.980 -0.926 -0.747 -0.606  -0.891  -0.550  -0.619 -0.847 -0.911 -0.444 -0.673  -0.820  -0.590 -0.714 0       
##  3 -1.09  -1.06  -0.919  -0.980 -0.926 -0.747 -0.606  -0.891  -0.550  -0.619 -0.847 -0.920 -0.444 -0.673  -0.820  -0.590 -0.714 0       
##  4 -1.06  -1.05  -0.919  -0.977 -0.926 -0.747 -0.606  -0.884  -0.550  -0.619 -0.847 -0.892 -0.444 -0.673  -0.762  -0.590 -0.697 0       
##  5 -1.22  -1.05  -0.914  -0.973 -0.919 -0.747 -0.606  -0.886  -0.550  -0.619 -0.847 -0.903 -0.444 -0.673  -0.724  -0.590 -0.714 0       
##  6 -0.403 -0.993 -0.890  -0.947 -0.904 -0.747 -0.606  -0.868  -0.550  -0.619 -0.828 -0.719 -0.444 -0.604  -0.531  -0.590 -0.648 0       
##  7  0.360  0.470 -0.0125  0.355  0.262 -0.215 -0.0132  0.0431 -0.279   0.301 -0.195  0.432  0.433 -0.0824 -0.0299  0.688  1.72  0       
##  8 -0.717 -0.674 -0.730  -0.698 -0.700 -0.327 -0.574  -0.700  -0.540  -0.587 -0.681 -0.440 -0.444 -0.638  -0.146  -0.590 -0.714 0       
##  9  0.543  0.470  0.498   0.433  0.444  0.624 -0.221  -0.118   0.0751  0.332  0.452  0.292 -0.416 -0.0824  0.683  -0.377  0.301 0       
## 10  0.768  1.06   1.11    1.09   0.889  0.596 -0.512   0.115   0.886   0.967  0.574 -0.315 -0.444  0.300   1.80   -0.590 -0.485 0       
## # ... with 2,513 more rows
…
forest_params <- parameters(mtry(c(2,6)), trees(), min_n())
forest_params

## Collection of 3 parameters for tuning
## 
##     id parameter type object class
##   mtry           mtry    nparam[+]
##  trees          trees    nparam[+]
##  min_n          min_n    nparam[+]

set.seed(str_length("beatnavy"))
forest_grid <- grid_max_entropy(forest_params, size = 30)
forest_grid

## # A tibble: 30 x 3
##     mtry trees min_n
##    <int> <int> <int>
##  1     3  1714     5
##  2     4   368    28
##  3     3  1607    39
##  4     3  1207    14
##  5     5    42    37
##  6     4   892    27
##  7     3  1154    25
##  8     5  1678     2
##  9     4   607    10
## 10     3   803    37
## # ... with 20 more rows
…
