lesson-11 – LTC Dusty Turner
…
pi0 <- 1/3
N  <- 10000               # number of simulations
R_obs <- R                # keep observed Rock consistent with Step 2
pihat_obs <- R_obs / n

# Simulate many samples under H0
sim_results <- tibble(
  trial = 1:N,
  rocks = rbinom(N, size = n, prob = pi0)   # Rock counts in each simulated sample
) |>
  mutate(pihat = rocks / n)                  # simulated sample proportions

sim_results

# A tibble: 10,000 × 3
   trial rocks pihat
   <int> <int> <dbl>
 1     1     9 0.474
 2     2     6 0.316
 3     3     7 0.368
 4     4     7 0.368
 5     5     9 0.474
 6     6     6 0.316
 7     7     6 0.316
 8     8    10 0.526
 9     9     7 0.368
10    10     5 0.263
# ℹ 9,990 more rows
…
