…
  ) %>%
  left_join(
    tibble(
      id = ESPNFromJSON$teams$id,
      AwayTeam = paste(ESPNFromJSON$teams$location,ESPNFromJSON$teams$nickname)
    ), by = c("AwayID"="id")
    ) %>%
  left_join(
    tibble(
      id = ESPNFromJSON$teams$id,
      HomeTeam = paste(ESPNFromJSON$teams$location,ESPNFromJSON$teams$nickname)
    ), by = c("HomeID"="id")
    ) 

## # A tibble: 80 x 7
##    AwayID AwayPoints HomeID HomePoints Winner AwayTeam          HomeTeam        
##     <int>      <dbl>  <int>      <dbl> <chr>  <chr>             <chr>           
##  1      2      138.       9       97.9 AWAY   Philly Chapmania~ Dallas The boys 
##  2      3      124.       7      128.  HOME   The Plainsmen     Compute  This!  
##  3      6      135.       4      108.  AWAY   Team Ward         The OBJective F~
##  4      1      109.       5      120.  HOME   'R'm Chair Quart~ Analysis Paraly~
##  5     10      130.       8      156.  HOME   Palindrome Tikkit The Chief       
##  6      6      115.       3      143.  HOME   Team Ward         The Plainsmen   
##  7      9      136.       1      100.  AWAY   Dallas The boys   'R'm Chair Quar~
##  8      2       72.6     10      125.  HOME   Philly Chapmania~ Palindrome Tikk~
##  9      7      136.       5      120.  AWAY   Compute  This!    Analysis Paraly~
## 10      4      145.       8      109.  AWAY   The OBJective Fu~ The Chief       
## # ... with 70 more rows
…
