Winning "Pay The Rent" on The Price Is Right · Dusty Turner
…
cleaning

## # A tibble: 1,010 x 6
##    text                           group_id group_number name   value  string_num
##    <chr>                          <chr>           <dbl> <chr>  <chr>       <int>
##  1 "1\n"                          New_1               0 dolla~ ""              1
##  2 "1\n"                          New_1               0 dolla~ ""              2
##  3 "Pantene shampoo ($5.99)\n"    New_1               0 dolla~ "($5.~          3
##  4 "Pantene shampoo ($5.99)\n"    New_1               0 dolla~ ""              4
##  5 "Red Baron pizza slices ($3.4~ New_1               0 dolla~ "($3.~          5
##  6 "Red Baron pizza slices ($3.4~ New_1               0 dolla~ "($2.~          6
##  7 "Whink cook top cleaner ($5.4~ New_1               0 dolla~ "($5.~          7
##  8 "Whink cook top cleaner ($5.4~ New_1               0 dolla~ "($1.~          8
##  9 "9 Lives cat food ($7.30)\n"   New_1               0 dolla~ "($7.~          9
## 10 "9 Lives cat food ($7.30)\n"   New_1               0 dolla~ ""             10
## # ... with 1,000 more rows
…
final_data

## # A tibble: 99 x 7
##    group_number product_1 product_2 product_3 product_4 product_5 product_6
##           <dbl>     <dbl>     <dbl>     <dbl>     <dbl>     <dbl>     <dbl>
##  1            0      5.99     3.49       2.98      5.49     1.49       7.3 
##  2            1      2.89     1.69       1.49      3.29     0.290      4.19
##  3            2      5.49     2.99       3.19      2.09     4.99       7.49
##  4            3      4.99     1.79       3.46      2.99     2.59       6.29
##  5            4      3.99     4.99       0.79      3.39     2.99       6.79
##  6            5      4.99     3.39       3.49      7        0.79       7.99
##  7            6      5.29     4.49       1.49      2.79     3.49       6.69
##  8            7      6.99     3.69       3.49      1.89     5.7        7.99
##  9            8      4.49     0.290      4.99      2.99     3.49       6.99
## 10            9      2.49     0.99       3.69      0.69     4.09       4.99
## # ... with 89 more rows
…
