SIL 1 Info – LTC Dusty Turner
…
SIL 1 Info

# A tibble: 518 × 31
    YEAR SERIAL MONTH HWTFINL   CPSID ASECFLAG ASECWTH PERNUM WTFINL  CPSIDV
   <dbl>  <dbl> <fct>   <dbl>   <dbl> <fct>      <dbl>  <dbl>  <dbl>   <dbl>
 1  1997  35661 March      NA 2.00e13 ASEC       2964.      2     NA 2.00e14
 2  1995  53646 March      NA 2.00e13 ASEC       3353.      1     NA 2.00e14
 3  1996  51055 March      NA 2.00e13 ASEC       2182.      1     NA 2.00e14
 4  1992  43755 March      NA 1.99e13 ASEC       4172.      1     NA 1.99e14
 5  1996  63329 March      NA 2.00e13 ASEC        912.      6     NA 2.00e14
 6  1988  11847 March      NA 1.99e13 ASEC       1849.      1     NA 1.99e14
 7  1990  47781 March      NA 1.99e13 ASEC       1496.      3     NA 1.99e14
 8  1988  45800 March      NA 1.99e13 ASEC       1697.      2     NA 1.99e14
 9  1997   5496 March      NA 2.00e13 ASEC       2987.      2     NA 2.00e14
10  1995  72088 March      NA 2.00e13 ASEC        938.      3     NA 2.00e14
# ℹ 508 more rows
# ℹ 21 more variables: CPSIDP <dbl>, ASECWT <dbl>, AGE <int>, SEX <fct>,
#   RACE <fct>, MARST <fct>, VETSTAT <fct>, EMPSTAT <fct>, DIFFMOB <fct>,
#   WORKLY <fct>, WKSWORK1 <dbl>, WKSWORK2 <fct>, FIRMSIZE <fct>,
#   DISABWRK <fct>, year_start <fct>, weeks_worked <dbl>,
#   employed_last_year <fct>, disability <chr>, white <lgl>, post_ADA <lgl>,
#   age_range <chr>
…
