…
Special Note About Request Dates

Thought the fitbitr library will not stop you, the Fitbit API will only allow you to request up to 100 days of data at at time. You can read more about it in the documentation.

Sleep Details

There are three different functions for displaying sleep data. I display one for simplicity.

# sleep_stage_granular(start_date = start_date,end_date =  end_date) ## not shown
# sleep_summary(start_date = start_date, end_date = end_date) ## not shown
sleep_stage_summary(start_date = start_date, end_date = end_date)

## # A tibble: 28 x 5
##    date       stage count minutes thirty_day_avg_minutes
##    <chr>      <chr> <int>   <int>                  <int>
##  1 2022-05-07 deep      4      68                     70
##  2 2022-05-07 light    27     282                    276
##  3 2022-05-07 rem      16     125                     79
##  4 2022-05-07 wake     29      49                     43
##  5 2022-05-06 deep      3      57                     73
##  6 2022-05-06 light    30     282                    274
##  7 2022-05-06 rem       5      71                     80
##  8 2022-05-06 wake     28      44                     43
##  9 2022-05-05 deep      6      88                     69
## 10 2022-05-05 light    31     223                    287
## # ... with 18 more rows

Maybe I should sleep more….

Heart Rate By Minute

heart_rate_intraday(date = start_date, minutes = TRUE) ## FALSE = By Second

## # A tibble: 1,316 x 2
##    time                heart_rate
##    <dttm>                   <int>
##  1 2022-05-01 00:00:00         83
##  2 2022-05-01 00:01:00         79
##  3 2022-05-01 00:02:00         84
##  4 2022-05-01 00:03:00         79
##  5 2022-05-01 00:04:00         70
##  6 2022-05-01 00:05:00         72
##  7 2022-05-01 00:06:00         75
##  8 2022-05-01 00:07:00         77
##  9 2022-05-01 00:08:00         69
## 10 2022-05-01 00:09:00         74
## # ... with 1,306 more rows

Heart Rate Zones

heart_rate_zones(start_date = start_date, end_date = end_date)

## # A tibble: 28 x 6
##    date       zone         min_hr max_hr minutes_in_zone calories_out
##    <date>     <chr>         <int>  <int>           <int>        <dbl>
##  1 2022-05-01 Out of Range     30    109            1438       2119. 
##  2 2022-05-01 Fat Burn        109    133               2         12.2
##  3 2022-05-01 Cardio          133    164               0          0  
##  4 2022-05-01 Peak            164    220               0          0  
##  5 2022-05-02 Out of Range     30    108            1375       2699. 
##  6 2022-05-02 Fat Burn        108    133              35        215. 
##  7 2022-05-02 Cardio          133    164              13        152. 
##  8 2022-05-02 Peak            164    220              17        209. 
##  9 2022-05-03 Out of Range     30    108            1382       2302. 
## 10 2022-05-03 Fat Burn        108    133              32        184. 
## # ... with 18 more rows
…
