· Dusty Turner
…
  # Classify each node
  node_type <- if_else(str_detect(classes, "mw-headline"), "heading", "caption")

  tibble(text = texts, type = node_type)
}

raw_data <- map_dfr(urls, scrape_page, .id = "page")
raw_data

## # A tibble: 937 × 3
##    page  text                                                              type 
##    <chr> <chr>                                                             <chr>
##  1 1     Gallery                                                           head…
##  2 1     Geri's Tragic Lucky Seven Loss (January 6, 2010, #4983K)          head…
##  3 1     Geri is playing for a 2010 Chevrolet Cobalt LS Coupe XFE.         capt…
##  4 1     She says 4 and has $3 left.                                       capt…
##  5 1     She says 4 and has lost all of her money.                         capt…
##  6 1     Trent's Heartbreaking Lucky Seven Loss (February 19, 2010, #5045… head…
##  7 1     Trent is playing for a Subaru Impreza 2.5i.                       capt…
##  8 1     He says 8 and has $6 left.                                        capt…
##  9 1     He says 4 and has $5 left.                                        capt…
## 10 1     He says 5 and has $4 left.                                        capt…
## # ℹ 927 more rows
…
