The Peloton API Part 1: Accessing and Exploring · Dusty Turner
…
Explore API

Currently, the pelotonR package has a nice function for exploring your information. As with most APIs the data is stored in JSON format The function below extracts the data and unpacks some of the nested lists.

Here it is below:

my_workout_df <- get_all_workouts(userid = me$id, num_workouts = me$total_workouts, joins = "ride,ride.instructor", parse_dates = T)
my_workout_df 

## # A tibble: 398 x 89
##    created_at          device_type  end_time            fitness_discipline
##    <dttm>              <chr>        <dttm>              <chr>             
##  1 2021-06-20 20:59:24 home_bike_v1 2021-06-20 21:19:25 stretching        
##  2 2021-06-20 20:48:58 home_bike_v1 2021-06-20 20:58:59 stretching        
##  3 2021-03-24 20:06:30 home_bike_v1 2021-03-24 20:27:27 cycling           
##  4 2021-03-24 19:58:42 home_bike_v1 2021-03-24 20:03:40 cycling           
##  5 2021-03-17 20:41:26 home_bike_v1 2021-03-17 21:02:21 cycling           
##  6 2021-03-17 20:31:24 home_bike_v1 2021-03-17 20:36:22 cycling           
##  7 2021-03-08 20:24:45 home_bike_v1 2021-03-08 20:45:40 cycling           
##  8 2021-03-08 20:16:04 home_bike_v1 2021-03-08 20:21:01 cycling           
##  9 2021-03-05 20:40:23 home_bike_v1 2021-03-05 21:01:20 cycling           
## 10 2021-03-05 20:32:06 home_bike_v1 2021-03-05 20:37:05 cycling           
## # ... with 388 more rows, and 85 more variables: has_pedaling_metrics <lgl>,
## #   has_leaderboard_metrics <lgl>, id <chr>,
## #   is_total_work_personal_record <lgl>, metrics_type <chr>, name <chr>,
## #   peloton_id <chr>, platform <chr>, start_time <dttm>, status <chr>,
## #   timezone <chr>, title <chr>, total_work <dbl>, user_id <chr>,
## #   workout_type <chr>, total_video_watch_time_seconds <int>,
## #   total_video_buffering_seconds <int>,
## #   v2_total_video_watch_time_seconds <dbl>,
## #   v2_total_video_buffering_seconds <dbl>,
…
Dig in deeper into the API

The Peloton API has a lot more information that you cannot yet access in the library. As I get more familiar with the API / library, I may do a few more pull requests. In the meantime, lets see what else we can find.

What we see in the my_workout dataframe above list element that contains the instructor ID.

my_workout_df %>%
  select(ride_instructor) %>% 
  group_by(ride_instructor) %>%
  group_split() %>% 
  purrr::map(~unnest(.x)) %>% 
  purrr::map(~slice(.x, 1)) %>% 
  purrr::map_dfr(~unnest(.x))

## # A tibble: 33 x 1
##    ride_instructor                 
##    <chr>                           
##  1 561f95c405734d8488ed8dcc8980d599
##  2 1b79e462bd564b6ca5ec728f1a5c2af0
##  3 4904612965164231a37143805a387e40
##  4 048f0ce00edb4427b2dced6cbeb107fd
##  5 7f3de5e78bb44d8591a0f77f760478c3
##  6 05735e106f0747d2a112d32678be8afd
##  7 2e57092bee334c8c8dcb9fe16ba5308c
##  8 4672db841da0495caf4b8f9cda405512
##  9 c0a9505d8135412d824cf3c97406179b
## 10 f6f2d613dc344e4bbf6428cd34697820
## # ... with 23 more rows
…
Photo Credit: Peloton Website

Lets get a look at how we can access the data of all the Peloton instructors.

instructor_df <-
1:parse_list_to_df(parsed, 
                   parse_dates = T, 
                   dictionary = list(numeric = c("v2_total_video_buffering_seconds", "ride_distance",
    "v2_total_video_watch_time_seconds")))$total %>%
  purrr::map_dfr(~ instructor_function(num = .x))
instructor_df

## # A tibble: 41 x 4
##    instructor_name  ride_instructor_id ride_instructor_bio     ride_instructor_~
##    <chr>            <chr>              <chr>                   <list>           
##  1 Aditi Shah       b8c2734e18a7496fa~ "To Aditi, yoga goes b~ <list [2]>       
##  2 Adrian Williams  f962a2b1b34d424ca~ "Adrian is a powerhous~ <list [6]>       
##  3 Anna Greenberg   a8c56f162c964e939~ "When Anna first turne~ <list [2]>       
##  4 Alex Toussaint   2e57092bee334c8c8~ "Alex Toussaint has a ~ <list [1]>       
##  5 Ally Love        731d7b7f6b414a498~ "As a model, dancer, c~ <list [1]>       
##  6 Andy Speer       c9fa21c2004c4544a~ "Andy takes a techniqu~ <list [6]>       
##  7 Becs Gentry      286fc17080d34406a~ "Becs joins Peloton fr~ <list [3]>       
##  8 Ben Alldis       7f3de5e78bb44d859~ "Growing up, Ben was a~ <list [2]>       
##  9 Bradley Rose     01f636dc54a145239~ "If there’s one thing ~ <list [1]>       
## 10 Callie Gullicks~ 255c81782f7242c9a~ "Callie radiates sunsh~ <list [3]>       
## # ... with 31 more rows
…
